#                                                                                                                                                                --- full sequence --- -------------- this domain -------------   hmm coord   ali coord   env coord
# target name              accession     tlen query name                                                                                       accession   qlen   E-value  score  bias   #  of  c-Evalue  i-Evalue  score  bias  from    to  from    to  from    to  acc description of target
#      -------------------   ---------- -----                                                                             -------------------- ---------- ----- --------- ------ ----- --- --- --------- --------- ------ ----- ----- ----- ----- ----- ----- ----- ---- ---------------------
POLG_EMCVR/1630-1809       Q66765.1       180 lcl|JX257003.1_prot_AFO66759.1_1[protein=polyprotein][protein_id=AFO66759.1][location=552..7460] -           2379   2.5e-92  300.2   0.1   1   1   1.6e-92   2.7e-92  300.1   0.1  1712  1892     1   180     1   180 1.00 -
I3VR62_MISV1/1599-1779     I3VR62.1       181 lcl|JX257003.1_prot_AFO66759.1_1[protein=polyprotein][protein_id=AFO66759.1][location=552..7460] -           2379   1.1e-28   89.1   0.0   1   1   7.4e-29   1.3e-28   88.9   0.0  1716  1891     5   180     2   181 0.90 -
Q155Z9_SVV1/1512-1691      Q155Z9.1       180 lcl|JX257003.1_prot_AFO66759.1_1[protein=polyprotein][protein_id=AFO66759.1][location=552..7460] -           2379   1.8e-27   85.1   0.0   1   1   1.1e-27   1.9e-27   85.0   0.0  1715  1891     3   179     1   180 0.92 -
B8XTP8_COSAA/1459-1635     B8XTP8.1       177 lcl|JX257003.1_prot_AFO66759.1_1[protein=polyprotein][protein_id=AFO66759.1][location=552..7460] -           2379   1.1e-20   62.6   0.0   1   1     7e-21   1.2e-20   62.5   0.0  1713  1891     2   176     1   177 0.92 -
F4YYF3_HUNVO/1590-1773     F4YYF3.1       184 lcl|JX257003.1_prot_AFO66759.1_1[protein=polyprotein][protein_id=AFO66759.1][location=552..7460] -           2379   6.2e-14   40.2   0.0   1   1   4.4e-14   7.4e-14   39.9   0.0  1744  1891    33   183    29   184 0.84 -
X2L6K2_MOVA2/1878-2056     X2L6K2.1       179 lcl|JX257003.1_prot_AFO66759.1_1[protein=polyprotein][protein_id=AFO66759.1][location=552..7460] -           2379   2.9e-13   38.0   0.0   1   1     2e-13   3.4e-13   37.7   0.0  1742  1891    31   178    28   179 0.86 -
Q9WJ28_PTV1F/1584-1760     Q9WJ28.1       177 lcl|JX257003.1_prot_AFO66759.1_1[protein=polyprotein][protein_id=AFO66759.1][location=552..7460] -           2379   6.9e-12   33.4   0.0   1   1   4.8e-12   8.1e-12   33.2   0.0  1742  1890    31   175    26   177 0.79 -
Q9DLK1_FMDVP/1642-1826     Q9DLK1.1       185 lcl|JX257003.1_prot_AFO66759.1_1[protein=polyprotein][protein_id=AFO66759.1][location=552..7460] -           2379   2.2e-10   28.4   0.0   1   1   1.4e-10   2.3e-10   28.3   0.0  1714  1893     3   185     1   185 0.80 -
H6VBU5_CADIV/729-904       H6VBU5.1       176 lcl|JX257003.1_prot_AFO66759.1_1[protein=polyprotein][protein_id=AFO66759.1][location=552..7460] -           2379   1.3e-08   22.5   0.0   1   1   8.8e-09   1.5e-08   22.3   0.0  1742  1890    27   174    25   176 0.80 -
Q66776_ERBV1/1905-2095     Q66776.1       191 lcl|JX257003.1_prot_AFO66759.1_1[protein=polyprotein][protein_id=AFO66759.1][location=552..7460] -           2379   1.4e-08   22.4   0.0   1   1   8.8e-09   1.5e-08   22.3   0.0  1749  1891    46   190    36   191 0.77 -
I6YQK4_PASI1/1488-1661     I6YQK4.1       174 lcl|JX257003.1_prot_AFO66759.1_1[protein=polyprotein][protein_id=AFO66759.1][location=552..7460] -           2379   2.2e-07   18.4   0.3   1   1   1.6e-07   2.7e-07   18.2   0.3  1846  1891   128   173   122   174 0.92 -
E9L812_MEGR1/2147-2324     E9L812.1       178 lcl|JX257003.1_prot_AFO66759.1_1[protein=polyprotein][protein_id=AFO66759.1][location=552..7460] -           2379   3.3e-07   17.9   0.0   1   1   2.3e-07     4e-07   17.6   0.0  1742  1893    24   178    21   178 0.79 -
A0A023T7J3_ROSV2/1786-1963 A0A023T7J3.1   178 lcl|JX257003.1_prot_AFO66759.1_1[protein=polyprotein][protein_id=AFO66759.1][location=552..7460] -           2379     1e-06   16.2   0.0   1   1   6.5e-07   1.1e-06   16.1   0.0  1749  1890    38   176    29   178 0.77 -
M4PJD6_AVISV/1537-1693     M4PJD6.1       157 lcl|JX257003.1_prot_AFO66759.1_1[protein=polyprotein][protein_id=AFO66759.1][location=552..7460] -           2379   2.4e-06   15.0   0.1   1   1   1.7e-06   2.8e-06   14.8   0.1  1849  1891   114   156   104   157 0.88 -
Q0ZQM1_DHAV/1646-1782      Q0ZQM1.1       137 lcl|JX257003.1_prot_AFO66759.1_1[protein=polyprotein][protein_id=AFO66759.1][location=552..7460] -           2379   5.7e-06   13.8   0.0   1   1   3.3e-06   5.7e-06   13.8   0.0  1784  1891    33   136    11   137 0.71 -
A8D7N3_AQUAV/1399-1536     A8D7N3.1       138 lcl|JX257003.1_prot_AFO66759.1_1[protein=polyprotein][protein_id=AFO66759.1][location=552..7460] -           2379   1.1e-05   12.8   0.0   1   1   6.4e-06   1.1e-05   12.8   0.0  1857  1891   104   138    31   138 0.80 -
POL1_CPMVS/1071-1136       P03600.1        66 lcl|JX257003.1_prot_AFO66759.1_1[protein=polyprotein][protein_id=AFO66759.1][location=552..7460] -           2379   1.1e-05   12.8   0.0   1   1   6.4e-06   1.1e-05   12.8   0.0  1855  1890    29    64    12    66 0.85 -
POLG_HPE2W/1517-1692       O73556.1       176 lcl|JX257003.1_prot_AFO66759.1_1[protein=polyprotein][protein_id=AFO66759.1][location=552..7460] -           2379   1.5e-05   12.4   0.0   1   1   8.6e-06   1.5e-05   12.4   0.0  1825  1891   115   175    41   176 0.66 -
D9YV26_OSCV1/1631-1760     D9YV26.1       130 lcl|JX257003.1_prot_AFO66759.1_1[protein=polyprotein][protein_id=AFO66759.1][location=552..7460] -           2379   4.6e-05   10.8   0.0   1   1   2.7e-05   4.6e-05   10.8   0.0  1805  1890    44   128    10   130 0.78 -
POL1_BBWVS/1076-1123       Q76L40.1        48 lcl|JX257003.1_prot_AFO66759.1_1[protein=polyprotein][protein_id=AFO66759.1][location=552..7460] -           2379   7.5e-05   10.1   0.1   1   1   4.1e-05     7e-05   10.2   0.1  1851  1890     7    46     1    48 0.89 -
POLG_EMCVR/1630-1809       Q66765.1       180 lcl|KC310737.1_prot_AGU38151.1_1[protein=polyprotein][protein_id=AGU38151.1][location=574..7479] -           2379   3.1e-89  290.1   0.1   1   1     2e-89   3.4e-89  289.9   0.1  1712  1892     1   180     1   180 0.99 -
Q155Z9_SVV1/1512-1691      Q155Z9.1       180 lcl|KC310737.1_prot_AGU38151.1_1[protein=polyprotein][protein_id=AGU38151.1][location=574..7479] -           2379   2.3e-29   91.5   0.0   1   1   1.4e-29   2.5e-29   91.4   0.0  1715  1891     3   179     1   180 0.92 -
I3VR62_MISV1/1599-1779     I3VR62.1       181 lcl|KC310737.1_prot_AGU38151.1_1[protein=polyprotein][protein_id=AGU38151.1][location=574..7479] -           2379   4.9e-29   90.4   0.0   1   1   3.1e-29   5.3e-29   90.3   0.0  1715  1891     4   180     1   181 0.92 -
B8XTP8_COSAA/1459-1635     B8XTP8.1       177 lcl|KC310737.1_prot_AGU38151.1_1[protein=polyprotein][protein_id=AGU38151.1][location=574..7479] -           2379   1.5e-17   52.3   0.0   1   1   9.8e-18   1.7e-17   52.2   0.0  1714  1891     3   176     1   177 0.84 -
Q9WJ28_PTV1F/1584-1760     Q9WJ28.1       177 lcl|KC310737.1_prot_AGU38151.1_1[protein=polyprotein][protein_id=AGU38151.1][location=574..7479] -           2379   2.3e-14   41.7   0.0   1   1   1.5e-14   2.5e-14   41.6   0.0  1742  1890    31   175    11   177 0.84 -
F4YYF3_HUNVO/1590-1773     F4YYF3.1       184 lcl|KC310737.1_prot_AGU38151.1_1[protein=polyprotein][protein_id=AGU38151.1][location=574..7479] -           2379     2e-12   35.3   0.0   1   1   1.4e-12   2.3e-12   35.1   0.0  1744  1891    33   183    28   184 0.81 -
Q9DLK1_FMDVP/1642-1826     Q9DLK1.1       185 lcl|KC310737.1_prot_AGU38151.1_1[protein=polyprotein][protein_id=AGU38151.1][location=574..7479] -           2379   2.8e-12   34.8   0.0   1   1   1.7e-12   2.9e-12   34.8   0.0  1750  1893    38   185     3   185 0.76 -
X2L6K2_MOVA2/1878-2056     X2L6K2.1       179 lcl|KC310737.1_prot_AGU38151.1_1[protein=polyprotein][protein_id=AGU38151.1][location=574..7479] -           2379   3.5e-12   34.5   0.0   1   1   2.3e-12   3.9e-12   34.4   0.0  1742  1891    31   178    13   179 0.86 -
Q66776_ERBV1/1905-2095     Q66776.1       191 lcl|KC310737.1_prot_AGU38151.1_1[protein=polyprotein][protein_id=AGU38151.1][location=574..7479] -           2379     5e-11   30.7   0.0   1   1   3.4e-11   5.9e-11   30.4   0.0  1746  1891    43   190    36   191 0.80 -
H6VBU5_CADIV/729-904       H6VBU5.1       176 lcl|KC310737.1_prot_AGU38151.1_1[protein=polyprotein][protein_id=AGU38151.1][location=574..7479] -           2379   1.4e-10   29.2   0.0   1   1   9.4e-11   1.6e-10   29.0   0.0  1742  1890    27   174    25   176 0.84 -
I6YQK4_PASI1/1488-1661     I6YQK4.1       174 lcl|KC310737.1_prot_AGU38151.1_1[protein=polyprotein][protein_id=AGU38151.1][location=574..7479] -           2379   1.1e-07   19.6   0.4   1   1   7.9e-08   1.3e-07   19.3   0.4  1846  1891   128   173   122   174 0.93 -
Q0ZQM1_DHAV/1646-1782      Q0ZQM1.1       137 lcl|KC310737.1_prot_AGU38151.1_1[protein=polyprotein][protein_id=AGU38151.1][location=574..7479] -           2379   2.1e-07   18.7   0.0   1   1   1.3e-07   2.3e-07   18.5   0.0  1778  1891    27   136    11   137 0.83 -
E9L812_MEGR1/2147-2324     E9L812.1       178 lcl|KC310737.1_prot_AGU38151.1_1[protein=polyprotein][protein_id=AGU38151.1][location=574..7479] -           2379   2.1e-07   18.6   0.0   1   1   1.4e-07   2.4e-07   18.4   0.0  1742  1893    24   178    22   178 0.86 -
M4PJD6_AVISV/1537-1693     M4PJD6.1       157 lcl|KC310737.1_prot_AGU38151.1_1[protein=polyprotein][protein_id=AGU38151.1][location=574..7479] -           2379   3.6e-07   17.9   0.1   1   1   2.3e-07     4e-07   17.7   0.1  1848  1891   113   156    94   157 0.91 -
A0A023T7J3_ROSV2/1786-1963 A0A023T7J3.1   178 lcl|KC310737.1_prot_AGU38151.1_1[protein=polyprotein][protein_id=AGU38151.1][location=574..7479] -           2379   4.1e-07   17.7   0.0   1   1   2.7e-07   4.7e-07   17.5   0.0  1751  1890    40   176    30   178 0.81 -
POL1_CPMVS/1071-1136       P03600.1        66 lcl|KC310737.1_prot_AGU38151.1_1[protein=polyprotein][protein_id=AGU38151.1][location=574..7479] -           2379   4.7e-07   17.5   0.1   1   1   2.8e-07   4.8e-07   17.5   0.1  1852  1890    26    64    12    66 0.87 -
POLG_HPE2W/1517-1692       O73556.1       176 lcl|KC310737.1_prot_AGU38151.1_1[protein=polyprotein][protein_id=AGU38151.1][location=574..7479] -           2379     1e-06   16.4   0.1   1   1   6.6e-07   1.1e-06   16.2   0.1  1774  1891    63   175    40   176 0.72 -
D9YV26_OSCV1/1631-1760     D9YV26.1       130 lcl|KC310737.1_prot_AGU38151.1_1[protein=polyprotein][protein_id=AGU38151.1][location=574..7479] -           2379   1.8e-05   12.3   0.0   1   1     1e-05   1.8e-05   12.3   0.0  1800  1890    40   128     5   130 0.82 -
POL1_BBWVS/1076-1123       Q76L40.1        48 lcl|KC310737.1_prot_AGU38151.1_1[protein=polyprotein][protein_id=AGU38151.1][location=574..7479] -           2379   3.2e-05   11.4   0.1   1   1   1.9e-05   3.2e-05   11.4   0.1  1851  1890     7    46     1    48 0.90 -
A8D7N3_AQUAV/1399-1536     A8D7N3.1       138 lcl|KC310737.1_prot_AGU38151.1_1[protein=polyprotein][protein_id=AGU38151.1][location=574..7479] -           2379   0.00024    8.5   0.0   1   1   0.00012    0.0002    8.8   0.0  1858  1891   105   138    34   138 0.86 -
POLG_EMCVR/1630-1809       Q66765.1       180 lcl|KF836389.1_prot_AHF20226.1_1[protein=polyprotein][protein_id=AHF20226.1][location=714..7592] -           2379  3.8e-117  382.5   0.9   1   1  2.6e-117  4.2e-117  382.3   0.9  1712  1892     1   180     1   180 1.00 -
Q155Z9_SVV1/1512-1691      Q155Z9.1       180 lcl|KF836389.1_prot_AHF20226.1_1[protein=polyprotein][protein_id=AHF20226.1][location=714..7592] -           2379   2.4e-30   94.6   0.1   1   1   1.6e-30   2.6e-30   94.5   0.1  1715  1891     3   179     1   180 0.92 -
I3VR62_MISV1/1599-1779     I3VR62.1       181 lcl|KF836389.1_prot_AHF20226.1_1[protein=polyprotein][protein_id=AHF20226.1][location=714..7592] -           2379   8.7e-29   89.4   0.0   1   1   6.5e-29     1e-28   89.1   0.0  1716  1891     5   180     2   181 0.94 -
Q9WJ28_PTV1F/1584-1760     Q9WJ28.1       177 lcl|KF836389.1_prot_AHF20226.1_1[protein=polyprotein][protein_id=AHF20226.1][location=714..7592] -           2379   2.8e-16   47.9   0.0   1   1     2e-16   3.3e-16   47.7   0.0  1740  1890    29   175    28   177 0.86 -
B8XTP8_COSAA/1459-1635     B8XTP8.1       177 lcl|KF836389.1_prot_AHF20226.1_1[protein=polyprotein][protein_id=AHF20226.1][location=714..7592] -           2379   1.9e-15   45.2   0.0   1   1   1.3e-15   2.1e-15   45.1   0.0  1712  1891     1   176     1   177 0.92 -
F4YYF3_HUNVO/1590-1773     F4YYF3.1       184 lcl|KF836389.1_prot_AHF20226.1_1[protein=polyprotein][protein_id=AHF20226.1][location=714..7592] -           2379   2.4e-14   41.5   0.0   1   1   1.7e-14   2.8e-14   41.3   0.0  1744  1891    33   183    29   184 0.83 -
Q9DLK1_FMDVP/1642-1826     Q9DLK1.1       185 lcl|KF836389.1_prot_AHF20226.1_1[protein=polyprotein][protein_id=AHF20226.1][location=714..7592] -           2379   1.9e-11   31.9   0.1   1   1   1.2e-11   1.9e-11   31.9   0.1  1746  1893    34   185     2   185 0.79 -
X2L6K2_MOVA2/1878-2056     X2L6K2.1       179 lcl|KF836389.1_prot_AHF20226.1_1[protein=polyprotein][protein_id=AHF20226.1][location=714..7592] -           2379   9.5e-11   29.6   0.0   1   1   6.4e-11     1e-10   29.5   0.0  1742  1891    31   178     2   179 0.83 -
Q66776_ERBV1/1905-2095     Q66776.1       191 lcl|KF836389.1_prot_AHF20226.1_1[protein=polyprotein][protein_id=AHF20226.1][location=714..7592] -           2379   1.5e-10   29.0   0.1   1   1   1.1e-10   1.7e-10   28.7   0.1  1748  1891    45   190    37   191 0.80 -
A0A023T7J3_ROSV2/1786-1963 A0A023T7J3.1   178 lcl|KF836389.1_prot_AHF20226.1_1[protein=polyprotein][protein_id=AHF20226.1][location=714..7592] -           2379   1.4e-09   25.7   0.0   1   1   9.4e-10   1.5e-09   25.6   0.0  1742  1890    31   176    17   178 0.81 -
Q0ZQM1_DHAV/1646-1782      Q0ZQM1.1       137 lcl|KF836389.1_prot_AHF20226.1_1[protein=polyprotein][protein_id=AHF20226.1][location=714..7592] -           2379   5.5e-08   20.4   0.0   1   1   3.4e-08   5.5e-08   20.4   0.0  1782  1891    31   136     9   137 0.80 -
M4PJD6_AVISV/1537-1693     M4PJD6.1       157 lcl|KF836389.1_prot_AHF20226.1_1[protein=polyprotein][protein_id=AHF20226.1][location=714..7592] -           2379   2.6e-07   18.2   0.1   1   1   1.9e-07   3.1e-07   17.9   0.1  1849  1891   114   156   106   157 0.89 -
H6VBU5_CADIV/729-904       H6VBU5.1       176 lcl|KF836389.1_prot_AHF20226.1_1[protein=polyprotein][protein_id=AHF20226.1][location=714..7592] -           2379   3.3e-07   17.8   0.0   1   1   2.3e-07   3.7e-07   17.7   0.0  1745  1890    30   174    25   176 0.82 -
E9L812_MEGR1/2147-2324     E9L812.1       178 lcl|KF836389.1_prot_AHF20226.1_1[protein=polyprotein][protein_id=AHF20226.1][location=714..7592] -           2379   5.2e-07   17.2   0.0   1   1   3.6e-07   5.9e-07   17.0   0.0  1742  1893    24   178    22   178 0.84 -
I6YQK4_PASI1/1488-1661     I6YQK4.1       174 lcl|KF836389.1_prot_AHF20226.1_1[protein=polyprotein][protein_id=AHF20226.1][location=714..7592] -           2379   7.4e-07   16.7   0.3   1   1   5.4e-07   8.8e-07   16.4   0.3  1846  1891   128   173   121   174 0.92 -
D9YV26_OSCV1/1631-1760     D9YV26.1       130 lcl|KF836389.1_prot_AHF20226.1_1[protein=polyprotein][protein_id=AHF20226.1][location=714..7592] -           2379   2.5e-06   14.9   0.0   1   1   1.5e-06   2.5e-06   14.9   0.0  1804  1890    43   128     7   130 0.80 -
POL1_CPMVS/1071-1136       P03600.1        66 lcl|KF836389.1_prot_AHF20226.1_1[protein=polyprotein][protein_id=AHF20226.1][location=714..7592] -           2379   5.3e-06   13.8   0.0   1   1   3.3e-06   5.3e-06   13.8   0.0  1855  1890    29    64    11    66 0.85 -
A8D7N3_AQUAV/1399-1536     A8D7N3.1       138 lcl|KF836389.1_prot_AHF20226.1_1[protein=polyprotein][protein_id=AHF20226.1][location=714..7592] -           2379   1.7e-05   12.1   0.0   1   1   1.1e-05   1.7e-05   12.1   0.0  1857  1891   104   138    11   138 0.82 -
POLG_HPE2W/1517-1692       O73556.1       176 lcl|KF836389.1_prot_AHF20226.1_1[protein=polyprotein][protein_id=AHF20226.1][location=714..7592] -           2379     2e-05   11.9   0.1   1   1   1.3e-05     2e-05   11.9   0.1  1847  1891   131   175    58   176 0.71 -
POLG_HAVHM/1524-1716       P08617.1       193 lcl|KF836389.1_prot_AHF20226.1_1[protein=polyprotein][protein_id=AHF20226.1][location=714..7592] -           2379   6.1e-05   10.3   0.1   1   1   4.1e-05   6.7e-05   10.2   0.1  1789  1891    79   191    50   193 0.65 -
POL1_BBWVS/1076-1123       Q76L40.1        48 lcl|KF836389.1_prot_AHF20226.1_1[protein=polyprotein][protein_id=AHF20226.1][location=714..7592] -           2379   0.00013    9.2   0.1   1   1   7.8e-05   0.00013    9.3   0.1  1851  1890     7    46     1    48 0.89 -
POLG_EMCVR/1630-1809       Q66765.1       180 lcl|DQ294633.1_prot_ABB97066.1_1[protein=polyprotein][protein_id=ABB97066.1][location=753..7634] -           2379  2.6e-107  349.8   0.7   1   1  1.7e-107  2.9e-107  349.7   0.7  1712  1892     1   180     1   180 1.00 -
Q155Z9_SVV1/1512-1691      Q155Z9.1       180 lcl|DQ294633.1_prot_ABB97066.1_1[protein=polyprotein][protein_id=ABB97066.1][location=753..7634] -           2379   1.1e-30   95.7   0.1   1   1   7.1e-31   1.2e-30   95.5   0.1  1715  1891     3   179     1   180 0.93 -
I3VR62_MISV1/1599-1779     I3VR62.1       181 lcl|DQ294633.1_prot_ABB97066.1_1[protein=polyprotein][protein_id=ABB97066.1][location=753..7634] -           2379   1.4e-27   85.4   0.0   1   1   8.5e-28   1.4e-27   85.3   0.0  1716  1891     5   180     1   181 0.91 -
B8XTP8_COSAA/1459-1635     B8XTP8.1       177 lcl|DQ294633.1_prot_ABB97066.1_1[protein=polyprotein][protein_id=ABB97066.1][location=753..7634] -           2379   4.4e-15   43.9   0.0   1   1   2.8e-15   4.8e-15   43.8   0.0  1713  1891     2   176     1   177 0.90 -
Q9WJ28_PTV1F/1584-1760     Q9WJ28.1       177 lcl|DQ294633.1_prot_ABB97066.1_1[protein=polyprotein][protein_id=ABB97066.1][location=753..7634] -           2379     6e-15   43.5   0.1   1   1   4.3e-15   7.2e-15   43.2   0.1  1740  1890    29   175    29   177 0.83 -
Q66776_ERBV1/1905-2095     Q66776.1       191 lcl|DQ294633.1_prot_ABB97066.1_1[protein=polyprotein][protein_id=ABB97066.1][location=753..7634] -           2379     1e-12   36.1   0.1   1   1     7e-13   1.2e-12   35.9   0.1  1748  1891    45   190    37   191 0.82 -
Q9DLK1_FMDVP/1642-1826     Q9DLK1.1       185 lcl|DQ294633.1_prot_ABB97066.1_1[protein=polyprotein][protein_id=ABB97066.1][location=753..7634] -           2379   2.5e-12   34.8   0.0   1   1   1.5e-12   2.6e-12   34.8   0.0  1746  1893    34   185     3   185 0.86 -
F4YYF3_HUNVO/1590-1773     F4YYF3.1       184 lcl|DQ294633.1_prot_ABB97066.1_1[protein=polyprotein][protein_id=ABB97066.1][location=753..7634] -           2379   5.3e-12   33.7   0.0   1   1   3.7e-12   6.3e-12   33.5   0.0  1744  1891    33   183    28   184 0.77 -
X2L6K2_MOVA2/1878-2056     X2L6K2.1       179 lcl|DQ294633.1_prot_ABB97066.1_1[protein=polyprotein][protein_id=ABB97066.1][location=753..7634] -           2379   1.8e-11   32.0   0.0   1   1   1.1e-11   1.8e-11   31.9   0.0  1742  1891    31   178     2   179 0.85 -
A0A023T7J3_ROSV2/1786-1963 A0A023T7J3.1   178 lcl|DQ294633.1_prot_ABB97066.1_1[protein=polyprotein][protein_id=ABB97066.1][location=753..7634] -           2379   6.1e-09   23.6   0.0   1   1   4.2e-09   7.1e-09   23.3   0.0  1743  1890    32   176    26   178 0.79 -
H6VBU5_CADIV/729-904       H6VBU5.1       176 lcl|DQ294633.1_prot_ABB97066.1_1[protein=polyprotein][protein_id=ABB97066.1][location=753..7634] -           2379   2.9e-08   21.3   0.0   1   1   1.9e-08   3.2e-08   21.2   0.0  1742  1890    27   174     6   176 0.83 -
Q0ZQM1_DHAV/1646-1782      Q0ZQM1.1       137 lcl|DQ294633.1_prot_ABB97066.1_1[protein=polyprotein][protein_id=ABB97066.1][location=753..7634] -           2379   2.4e-07   18.2   0.0   1   1   1.4e-07   2.4e-07   18.2   0.0  1781  1891    30   136     8   137 0.81 -
M4PJD6_AVISV/1537-1693     M4PJD6.1       157 lcl|DQ294633.1_prot_ABB97066.1_1[protein=polyprotein][protein_id=ABB97066.1][location=753..7634] -           2379   5.7e-07   17.0   0.1   1   1     4e-07   6.8e-07   16.8   0.1  1849  1891   114   156   105   157 0.89 -
I6YQK4_PASI1/1488-1661     I6YQK4.1       174 lcl|DQ294633.1_prot_ABB97066.1_1[protein=polyprotein][protein_id=ABB97066.1][location=753..7634] -           2379   6.7e-07   16.8   0.4   1   1   4.7e-07     8e-07   16.5   0.4  1846  1891   128   173   122   174 0.92 -
E9L812_MEGR1/2147-2324     E9L812.1       178 lcl|DQ294633.1_prot_ABB97066.1_1[protein=polyprotein][protein_id=ABB97066.1][location=753..7634] -           2379   7.7e-07   16.6   0.0   1   1   5.1e-07   8.7e-07   16.4   0.0  1742  1893    24   178    22   178 0.86 -
A8D7N3_AQUAV/1399-1536     A8D7N3.1       138 lcl|DQ294633.1_prot_ABB97066.1_1[protein=polyprotein][protein_id=ABB97066.1][location=753..7634] -           2379   4.9e-06   13.9   0.0   1   1   2.9e-06   4.9e-06   13.9   0.0  1858  1891   105   138    20   138 0.84 -
POL1_CPMVS/1071-1136       P03600.1        66 lcl|DQ294633.1_prot_ABB97066.1_1[protein=polyprotein][protein_id=ABB97066.1][location=753..7634] -           2379   8.8e-06   13.1   0.0   1   1   5.2e-06   8.8e-06   13.1   0.0  1855  1890    29    64    11    66 0.85 -
D9YV26_OSCV1/1631-1760     D9YV26.1       130 lcl|DQ294633.1_prot_ABB97066.1_1[protein=polyprotein][protein_id=ABB97066.1][location=753..7634] -           2379   2.7e-05   11.5   0.0   1   1   1.6e-05   2.7e-05   11.5   0.0  1804  1890    43   128     5   130 0.78 -
POLG_HPE2W/1517-1692       O73556.1       176 lcl|DQ294633.1_prot_ABB97066.1_1[protein=polyprotein][protein_id=ABB97066.1][location=753..7634] -           2379   5.4e-05   10.5   0.1   1   1   3.1e-05   5.3e-05   10.5   0.1  1846  1891   130   175    63   176 0.73 -
POL1_BBWVS/1076-1123       Q76L40.1        48 lcl|DQ294633.1_prot_ABB97066.1_1[protein=polyprotein][protein_id=ABB97066.1][location=753..7634] -           2379   0.00012    9.4   0.0   1   1   6.4e-05   0.00011    9.5   0.0  1851  1890     7    46     1    48 0.89 -
POLG_EMCVR/1630-1809       Q66765.1       180 lcl|KF823815.1_prot_AIB06813.1_1[protein=polyprotein][partial=3'][protein_id=AIB06813.1][location=467..>6488] -           2379   8.8e-57  181.9   0.0   1   1   5.7e-57   9.7e-57  181.8   0.0  1712  1891     1   179     1   180 0.98 -
Q155Z9_SVV1/1512-1691      Q155Z9.1       180 lcl|KF823815.1_prot_AIB06813.1_1[protein=polyprotein][partial=3'][protein_id=AIB06813.1][location=467..>6488] -           2379   1.9e-30   94.6   0.1   1   1   1.3e-30   2.2e-30   94.4   0.1  1717  1891     5   179     2   180 0.87 -
I3VR62_MISV1/1599-1779     I3VR62.1       181 lcl|KF823815.1_prot_AIB06813.1_1[protein=polyprotein][partial=3'][protein_id=AIB06813.1][location=467..>6488] -           2379   1.1e-29   92.0   0.0   1   1     7e-30   1.2e-29   91.9   0.0  1712  1891     3   180     1   181 0.87 -
H6VBU5_CADIV/729-904       H6VBU5.1       176 lcl|KF823815.1_prot_AIB06813.1_1[protein=polyprotein][partial=3'][protein_id=AIB06813.1][location=467..>6488] -           2379   1.2e-13   38.8   0.0   1   1   7.9e-14   1.3e-13   38.7   0.0  1740  1892    25   176     4   176 0.85 -
B8XTP8_COSAA/1459-1635     B8XTP8.1       177 lcl|KF823815.1_prot_AIB06813.1_1[protein=polyprotein][partial=3'][protein_id=AIB06813.1][location=467..>6488] -           2379   2.6e-13   37.8   0.1   1   1   1.7e-13   2.8e-13   37.6   0.1  1713  1892     2   177     1   177 0.81 -
Q9WJ28_PTV1F/1584-1760     Q9WJ28.1       177 lcl|KF823815.1_prot_AIB06813.1_1[protein=polyprotein][partial=3'][protein_id=AIB06813.1][location=467..>6488] -           2379   4.3e-13   37.0   0.1   1   1   2.9e-13   4.9e-13   36.8   0.1  1722  1892    11   177     3   177 0.82 -
Q9DLK1_FMDVP/1642-1826     Q9DLK1.1       185 lcl|KF823815.1_prot_AIB06813.1_1[protein=polyprotein][partial=3'][protein_id=AIB06813.1][location=467..>6488] -           2379   4.6e-12   33.6   0.1   1   1   2.7e-12   4.6e-12   33.6   0.1  1789  1893    81   185    16   185 0.88 -
F4YYF3_HUNVO/1590-1773     F4YYF3.1       184 lcl|KF823815.1_prot_AIB06813.1_1[protein=polyprotein][partial=3'][protein_id=AIB06813.1][location=467..>6488] -           2379   2.3e-10   28.0   0.0   1   1   1.6e-10   2.7e-10   27.8   0.0  1722  1891    12   183     3   184 0.77 -
X2L6K2_MOVA2/1878-2056     X2L6K2.1       179 lcl|KF823815.1_prot_AIB06813.1_1[protein=polyprotein][partial=3'][protein_id=AIB06813.1][location=467..>6488] -           2379   9.4e-10   25.9   0.0   1   1     6e-10     1e-09   25.8   0.0  1713  1892     2   179     1   179 0.81 -
Q66776_ERBV1/1905-2095     Q66776.1       191 lcl|KF823815.1_prot_AIB06813.1_1[protein=polyprotein][partial=3'][protein_id=AIB06813.1][location=467..>6488] -           2379   2.4e-09   24.6   0.2   1   1   1.5e-09   2.5e-09   24.5   0.2  1745  1892    42   191     7   191 0.74 -
A0A023T7J3_ROSV2/1786-1963 A0A023T7J3.1   178 lcl|KF823815.1_prot_AIB06813.1_1[protein=polyprotein][partial=3'][protein_id=AIB06813.1][location=467..>6488] -           2379   2.7e-07   17.8   0.0   1   1   1.6e-07   2.7e-07   17.8   0.0  1779  1892    67   178    21   178 0.82 -
I6YQK4_PASI1/1488-1661     I6YQK4.1       174 lcl|KF823815.1_prot_AIB06813.1_1[protein=polyprotein][partial=3'][protein_id=AIB06813.1][location=467..>6488] -           2379   8.7e-07   16.1   0.5   1   1   5.6e-07   9.5e-07   16.0   0.5  1846  1892   128   174   103   174 0.88 -
E9L812_MEGR1/2147-2324     E9L812.1       178 lcl|KF823815.1_prot_AIB06813.1_1[protein=polyprotein][partial=3'][protein_id=AIB06813.1][location=467..>6488] -           2379   1.4e-06   15.4   0.0   1   1   9.6e-07   1.6e-06   15.2   0.0  1728  1893    11   178     4   178 0.73 -
M4PJD6_AVISV/1537-1693     M4PJD6.1       157 lcl|KF823815.1_prot_AIB06813.1_1[protein=polyprotein][partial=3'][protein_id=AIB06813.1][location=467..>6488] -           2379   2.7e-06   14.5   0.1   1   1   1.6e-06   2.7e-06   14.5   0.1  1786  1892    55   157     6   157 0.70 -
D9YV26_OSCV1/1631-1760     D9YV26.1       130 lcl|KF823815.1_prot_AIB06813.1_1[protein=polyprotein][partial=3'][protein_id=AIB06813.1][location=467..>6488] -           2379   3.2e-06   14.2   0.0   1   1   2.2e-06   3.7e-06   14.0   0.0  1850  1890    87   128    78   130 0.89 -
POLG_HPE2W/1517-1692       O73556.1       176 lcl|KF823815.1_prot_AIB06813.1_1[protein=polyprotein][partial=3'][protein_id=AIB06813.1][location=467..>6488] -           2379   3.8e-06   14.0   0.1   1   1   2.3e-06   3.9e-06   13.9   0.1  1779  1892    68   176    28   176 0.72 -
POL1_BBWVS/1076-1123       Q76L40.1        48 lcl|KF823815.1_prot_AIB06813.1_1[protein=polyprotein][partial=3'][protein_id=AIB06813.1][location=467..>6488] -           2379   5.5e-06   13.5   0.1   1   1   3.2e-06   5.5e-06   13.5   0.1  1852  1892     8    48     1    48 0.90 -
POL1_CPMVS/1071-1136       P03600.1        66 lcl|KF823815.1_prot_AIB06813.1_1[protein=polyprotein][partial=3'][protein_id=AIB06813.1][location=467..>6488] -           2379   5.6e-06   13.4   0.1   1   1   3.8e-06   6.4e-06   13.2   0.1  1848  1890    19    64    10    65 0.83 -
POLG_HRV8A/1522-1687       P07210.3       166 lcl|KF823815.1_prot_AIB06813.1_1[protein=polyprotein][partial=3'][protein_id=AIB06813.1][location=467..>6488] -           2379   5.7e-06   13.4   0.1   1   1   3.9e-06   6.6e-06   13.2   0.1  1783  1892    64   166    56   166 0.76 -
Q0ZQM1_DHAV/1646-1782      Q0ZQM1.1       137 lcl|KF823815.1_prot_AIB06813.1_1[protein=polyprotein][partial=3'][protein_id=AIB06813.1][location=467..>6488] -           2379   0.00018    8.4   0.0   1   1   8.4e-05   0.00014    8.8   0.0  1848  1892    91   137    15   137 0.82 -
POLG_EMCVR/1630-1809       Q66765.1       180 lcl|AB747252.1_prot_BAM44710.1_1[protein=polyprotein][protein_id=BAM44710.1][location=1040..7933] -           2379   1.3e-57  185.4   0.1   1   1   7.3e-58   1.4e-57  185.2   0.1  1712  1891     1   179     1   180 0.98 -
I3VR62_MISV1/1599-1779     I3VR62.1       181 lcl|AB747252.1_prot_BAM44710.1_1[protein=polyprotein][protein_id=BAM44710.1][location=1040..7933] -           2379   2.1e-33  105.0   0.1   1   1   1.2e-33   2.3e-33  104.9   0.1  1711  1891     2   180     1   181 0.94 -
Q155Z9_SVV1/1512-1691      Q155Z9.1       180 lcl|AB747252.1_prot_BAM44710.1_1[protein=polyprotein][protein_id=BAM44710.1][location=1040..7933] -           2379   6.8e-33  103.3   0.1   1   1   3.9e-33   7.4e-33  103.2   0.1  1715  1891     3   179     1   180 0.90 -
B8XTP8_COSAA/1459-1635     B8XTP8.1       177 lcl|AB747252.1_prot_BAM44710.1_1[protein=polyprotein][protein_id=BAM44710.1][location=1040..7933] -           2379   2.1e-17   52.0   0.2   1   1   1.2e-17   2.3e-17   51.8   0.2  1712  1892     1   177     1   177 0.90 -
Q9WJ28_PTV1F/1584-1760     Q9WJ28.1       177 lcl|AB747252.1_prot_BAM44710.1_1[protein=polyprotein][protein_id=BAM44710.1][location=1040..7933] -           2379   7.7e-15   43.5   0.2   1   1   4.7e-15   8.9e-15   43.2   0.2  1720  1892     9   177     2   177 0.87 -
X2L6K2_MOVA2/1878-2056     X2L6K2.1       179 lcl|AB747252.1_prot_BAM44710.1_1[protein=polyprotein][protein_id=BAM44710.1][location=1040..7933] -           2379   6.3e-14   40.4   0.0   1   1   3.6e-14   6.8e-14   40.3   0.0  1713  1892     2   179     1   179 0.85 -
Q66776_ERBV1/1905-2095     Q66776.1       191 lcl|AB747252.1_prot_BAM44710.1_1[protein=polyprotein][protein_id=BAM44710.1][location=1040..7933] -           2379   9.7e-12   33.2   0.3   1   1   5.7e-12   1.1e-11   33.0   0.3  1738  1892    33   191    12   191 0.79 -
H6VBU5_CADIV/729-904       H6VBU5.1       176 lcl|AB747252.1_prot_BAM44710.1_1[protein=polyprotein][protein_id=BAM44710.1][location=1040..7933] -           2379   2.3e-11   31.9   0.0   1   1   1.3e-11   2.5e-11   31.8   0.0  1739  1892    24   176     2   176 0.82 -
F4YYF3_HUNVO/1590-1773     F4YYF3.1       184 lcl|AB747252.1_prot_BAM44710.1_1[protein=polyprotein][protein_id=BAM44710.1][location=1040..7933] -           2379     1e-09   26.5   0.0   1   1   5.8e-10   1.1e-09   26.4   0.0  1722  1891    12   183     2   184 0.78 -
POLG_HRV8A/1522-1687       P07210.3       166 lcl|AB747252.1_prot_BAM44710.1_1[protein=polyprotein][protein_id=BAM44710.1][location=1040..7933] -           2379   1.5e-08   22.6   0.0   1   1     9e-09   1.7e-08   22.4   0.0  1783  1887    64   161    49   166 0.74 -
Q9DLK1_FMDVP/1642-1826     Q9DLK1.1       185 lcl|AB747252.1_prot_BAM44710.1_1[protein=polyprotein][protein_id=BAM44710.1][location=1040..7933] -           2379     2e-07   18.9   0.1   1   1   1.1e-07     2e-07   18.9   0.1  1783  1893    75   185     3   185 0.72 -
E9L812_MEGR1/2147-2324     E9L812.1       178 lcl|AB747252.1_prot_BAM44710.1_1[protein=polyprotein][protein_id=BAM44710.1][location=1040..7933] -           2379     1e-06   16.5   0.1   1   1   6.5e-07   1.2e-06   16.2   0.1  1727  1893    10   178     3   178 0.77 -
POLG_HPE2W/1517-1692       O73556.1       176 lcl|AB747252.1_prot_BAM44710.1_1[protein=polyprotein][protein_id=BAM44710.1][location=1040..7933] -           2379   9.7e-06   13.3   0.1   1   1   5.5e-06     1e-05   13.2   0.1  1778  1892    67   176    33   176 0.79 -
A0A023T7J3_ROSV2/1786-1963 A0A023T7J3.1   178 lcl|AB747252.1_prot_BAM44710.1_1[protein=polyprotein][protein_id=BAM44710.1][location=1040..7933] -           2379   1.4e-05   12.7   0.0   1   1   7.6e-06   1.4e-05   12.7   0.0  1750  1892    39   178     9   178 0.80 -
M4PJD6_AVISV/1537-1693     M4PJD6.1       157 lcl|AB747252.1_prot_BAM44710.1_1[protein=polyprotein][protein_id=BAM44710.1][location=1040..7933] -           2379   4.8e-05   11.0   0.0   1   1   2.6e-05   4.8e-05   11.0   0.0  1847  1892   112   157    32   157 0.86 -
I6YQK4_PASI1/1488-1661     I6YQK4.1       174 lcl|AB747252.1_prot_BAM44710.1_1[protein=polyprotein][protein_id=BAM44710.1][location=1040..7933] -           2379   5.6e-05   10.8   1.8   1   1   3.6e-05   6.8e-05   10.5   1.8  1846  1892   128   174   122   174 0.91 -
D9YV26_OSCV1/1631-1760     D9YV26.1       130 lcl|AB747252.1_prot_BAM44710.1_1[protein=polyprotein][protein_id=BAM44710.1][location=1040..7933] -           2379     6e-05   10.6   0.0   1   1   3.2e-05     6e-05   10.6   0.0  1830  1890    68   128    39   130 0.83 -
POL1_CPMVS/1071-1136       P03600.1        66 lcl|AB747252.1_prot_BAM44710.1_1[protein=polyprotein][protein_id=BAM44710.1][location=1040..7933] -           2379   0.00023    8.7   0.0   1   1   0.00011   0.00021    8.8   0.0  1856  1890    30    64    12    66 0.90 -
POLG_EMCVR/1630-1809       Q66765.1       180 lcl|JN652231.1_prot_AER13150.1_1[protein=polyprotein][protein_id=AER13150.1][location=858..7739] -           2379   4.4e-58  186.8   0.2   1   1   2.5e-58   4.8e-58  186.7   0.2  1712  1891     1   179     1   180 0.98 -
I3VR62_MISV1/1599-1779     I3VR62.1       181 lcl|JN652231.1_prot_AER13150.1_1[protein=polyprotein][protein_id=AER13150.1][location=858..7739] -           2379   2.6e-33  104.6   0.1   1   1   1.5e-33   2.8e-33  104.5   0.1  1711  1891     2   180     1   181 0.94 -
Q155Z9_SVV1/1512-1691      Q155Z9.1       180 lcl|JN652231.1_prot_AER13150.1_1[protein=polyprotein][protein_id=AER13150.1][location=858..7739] -           2379   4.5e-33  103.8   0.1   1   1   2.6e-33   4.9e-33  103.7   0.1  1715  1891     3   179     1   180 0.90 -
B8XTP8_COSAA/1459-1635     B8XTP8.1       177 lcl|JN652231.1_prot_AER13150.1_1[protein=polyprotein][protein_id=AER13150.1][location=858..7739] -           2379   5.1e-17   50.6   0.2   1   1     3e-17   5.6e-17   50.5   0.2  1712  1892     1   177     1   177 0.89 -
Q9WJ28_PTV1F/1584-1760     Q9WJ28.1       177 lcl|JN652231.1_prot_AER13150.1_1[protein=polyprotein][protein_id=AER13150.1][location=858..7739] -           2379   1.2e-15   46.1   0.2   1   1   6.8e-16   1.3e-15   46.0   0.2  1715  1892     4   177     1   177 0.90 -
X2L6K2_MOVA2/1878-2056     X2L6K2.1       179 lcl|JN652231.1_prot_AER13150.1_1[protein=polyprotein][protein_id=AER13150.1][location=858..7739] -           2379   7.5e-14   40.1   0.0   1   1   4.3e-14   8.1e-14   40.0   0.0  1713  1892     2   179     1   179 0.85 -
Q66776_ERBV1/1905-2095     Q66776.1       191 lcl|JN652231.1_prot_AER13150.1_1[protein=polyprotein][protein_id=AER13150.1][location=858..7739] -           2379   1.3e-11   32.7   0.3   1   1   7.6e-12   1.4e-11   32.5   0.3  1738  1892    33   191    10   191 0.79 -
H6VBU5_CADIV/729-904       H6VBU5.1       176 lcl|JN652231.1_prot_AER13150.1_1[protein=polyprotein][protein_id=AER13150.1][location=858..7739] -           2379   1.8e-11   32.2   0.1   1   1     1e-11   1.9e-11   32.1   0.1  1740  1892    25   176     2   176 0.83 -
F4YYF3_HUNVO/1590-1773     F4YYF3.1       184 lcl|JN652231.1_prot_AER13150.1_1[protein=polyprotein][protein_id=AER13150.1][location=858..7739] -           2379   1.9e-09   25.5   0.0   1   1   1.1e-09   2.1e-09   25.3   0.0  1722  1891    12   183     2   184 0.79 -
POLG_HRV8A/1522-1687       P07210.3       166 lcl|JN652231.1_prot_AER13150.1_1[protein=polyprotein][protein_id=AER13150.1][location=858..7739] -           2379   6.7e-08   20.3   0.0   1   1   3.9e-08   7.4e-08   20.2   0.0  1783  1874    64   152    49   166 0.75 -
Q9DLK1_FMDVP/1642-1826     Q9DLK1.1       185 lcl|JN652231.1_prot_AER13150.1_1[protein=polyprotein][protein_id=AER13150.1][location=858..7739] -           2379   1.8e-07   19.0   0.1   1   1   9.4e-08   1.8e-07   18.9   0.1  1748  1893    36   185     4   185 0.72 -
E9L812_MEGR1/2147-2324     E9L812.1       178 lcl|JN652231.1_prot_AER13150.1_1[protein=polyprotein][protein_id=AER13150.1][location=858..7739] -           2379   1.8e-07   19.0   0.1   1   1     1e-07     2e-07   18.8   0.1  1723  1893     7   178     2   178 0.79 -
POLG_HPE2W/1517-1692       O73556.1       176 lcl|JN652231.1_prot_AER13150.1_1[protein=polyprotein][protein_id=AER13150.1][location=858..7739] -           2379     1e-05   13.1   0.1   1   1   5.9e-06   1.1e-05   13.0   0.1  1778  1892    67   176    33   176 0.78 -
A0A023T7J3_ROSV2/1786-1963 A0A023T7J3.1   178 lcl|JN652231.1_prot_AER13150.1_1[protein=polyprotein][protein_id=AER13150.1][location=858..7739] -           2379   1.7e-05   12.3   0.0   1   1   9.6e-06   1.8e-05   12.3   0.0  1750  1892    39   178    10   178 0.81 -
M4PJD6_AVISV/1537-1693     M4PJD6.1       157 lcl|JN652231.1_prot_AER13150.1_1[protein=polyprotein][protein_id=AER13150.1][location=858..7739] -           2379   4.6e-05   10.9   0.0   1   1   2.5e-05   4.6e-05   10.9   0.0  1847  1892   112   157    36   157 0.87 -
D9YV26_OSCV1/1631-1760     D9YV26.1       130 lcl|JN652231.1_prot_AER13150.1_1[protein=polyprotein][protein_id=AER13150.1][location=858..7739] -           2379   5.4e-05   10.7   0.0   1   1   2.9e-05   5.4e-05   10.7   0.0  1830  1890    68   128    39   130 0.83 -
I6YQK4_PASI1/1488-1661     I6YQK4.1       174 lcl|JN652231.1_prot_AER13150.1_1[protein=polyprotein][protein_id=AER13150.1][location=858..7739] -           2379   6.4e-05   10.5   1.8   1   1   4.1e-05   7.7e-05   10.2   1.8  1846  1892   128   174   122   174 0.90 -
POL1_CPMVS/1071-1136       P03600.1        66 lcl|JN652231.1_prot_AER13150.1_1[protein=polyprotein][protein_id=AER13150.1][location=858..7739] -           2379   0.00029    8.3   0.1   1   1   0.00016    0.0003    8.3   0.1  1856  1890    30    64    12    65 0.90 -
POLG_EMCVR/1630-1809       Q66765.1       180 lcl|JX122402.1_prot_AFP81730.1_1[gene=SAFVgp1][protein=polyprotein][protein_id=AFP81730.1][location=838..7728] -           2379   1.1e-56  182.2   0.1   1   1   6.6e-57   1.2e-56  182.1   0.1  1712  1891     1   179     1   180 0.98 -
I3VR62_MISV1/1599-1779     I3VR62.1       181 lcl|JX122402.1_prot_AFP81730.1_1[gene=SAFVgp1][protein=polyprotein][protein_id=AFP81730.1][location=838..7728] -           2379   2.6e-33  104.7   0.1   1   1   1.5e-33   2.8e-33  104.6   0.1  1711  1891     2   180     1   181 0.94 -
Q155Z9_SVV1/1512-1691      Q155Z9.1       180 lcl|JX122402.1_prot_AFP81730.1_1[gene=SAFVgp1][protein=polyprotein][protein_id=AFP81730.1][location=838..7728] -           2379   1.1e-32  102.7   0.1   1   1   6.3e-33   1.2e-32  102.5   0.1  1715  1891     3   179     1   180 0.90 -
B8XTP8_COSAA/1459-1635     B8XTP8.1       177 lcl|JX122402.1_prot_AFP81730.1_1[gene=SAFVgp1][protein=polyprotein][protein_id=AFP81730.1][location=838..7728] -           2379   1.4e-16   49.2   0.2   1   1   8.2e-17   1.6e-16   49.1   0.2  1712  1892     1   177     1   177 0.89 -
Q9WJ28_PTV1F/1584-1760     Q9WJ28.1       177 lcl|JX122402.1_prot_AFP81730.1_1[gene=SAFVgp1][protein=polyprotein][protein_id=AFP81730.1][location=838..7728] -           2379   1.6e-14   42.4   0.2   1   1   9.9e-15   1.9e-14   42.2   0.2  1717  1892     6   177     2   177 0.88 -
X2L6K2_MOVA2/1878-2056     X2L6K2.1       179 lcl|JX122402.1_prot_AFP81730.1_1[gene=SAFVgp1][protein=polyprotein][protein_id=AFP81730.1][location=838..7728] -           2379   7.7e-14   40.2   0.0   1   1   4.4e-14   8.4e-14   40.0   0.0  1713  1892     2   179     1   179 0.85 -
Q66776_ERBV1/1905-2095     Q66776.1       191 lcl|JX122402.1_prot_AFP81730.1_1[gene=SAFVgp1][protein=polyprotein][protein_id=AFP81730.1][location=838..7728] -           2379   1.5e-11   32.6   0.2   1   1   8.6e-12   1.6e-11   32.4   0.2  1738  1892    33   191    10   191 0.79 -
H6VBU5_CADIV/729-904       H6VBU5.1       176 lcl|JX122402.1_prot_AFP81730.1_1[gene=SAFVgp1][protein=polyprotein][protein_id=AFP81730.1][location=838..7728] -           2379     2e-11   32.2   0.0   1   1   1.1e-11   2.1e-11   32.1   0.0  1740  1892    25   176     2   176 0.83 -
F4YYF3_HUNVO/1590-1773     F4YYF3.1       184 lcl|JX122402.1_prot_AFP81730.1_1[gene=SAFVgp1][protein=polyprotein][protein_id=AFP81730.1][location=838..7728] -           2379   1.8e-09   25.7   0.0   1   1     1e-09   1.9e-09   25.6   0.0  1722  1891    12   183     2   184 0.79 -
POLG_HRV8A/1522-1687       P07210.3       166 lcl|JX122402.1_prot_AFP81730.1_1[gene=SAFVgp1][protein=polyprotein][protein_id=AFP81730.1][location=838..7728] -           2379   1.5e-08   22.6   0.0   1   1   8.4e-09   1.6e-08   22.5   0.0  1783  1874    64   152    49   166 0.75 -
Q9DLK1_FMDVP/1642-1826     Q9DLK1.1       185 lcl|JX122402.1_prot_AFP81730.1_1[gene=SAFVgp1][protein=polyprotein][protein_id=AFP81730.1][location=838..7728] -           2379   1.3e-07   19.5   0.1   1   1     7e-08   1.3e-07   19.5   0.1  1746  1893    34   185     2   185 0.72 -
E9L812_MEGR1/2147-2324     E9L812.1       178 lcl|JX122402.1_prot_AFP81730.1_1[gene=SAFVgp1][protein=polyprotein][protein_id=AFP81730.1][location=838..7728] -           2379     1e-06   16.5   0.1   1   1   6.1e-07   1.2e-06   16.4   0.1  1723  1893     7   178     2   178 0.78 -
POLG_HPE2W/1517-1692       O73556.1       176 lcl|JX122402.1_prot_AFP81730.1_1[gene=SAFVgp1][protein=polyprotein][protein_id=AFP81730.1][location=838..7728] -           2379   1.5e-05   12.6   0.1   1   1   8.5e-06   1.6e-05   12.6   0.1  1778  1892    67   176    31   176 0.78 -
A0A023T7J3_ROSV2/1786-1963 A0A023T7J3.1   178 lcl|JX122402.1_prot_AFP81730.1_1[gene=SAFVgp1][protein=polyprotein][protein_id=AFP81730.1][location=838..7728] -           2379   2.6e-05   11.9   0.0   1   1   1.4e-05   2.7e-05   11.8   0.0  1750  1892    39   178     8   178 0.80 -
M4PJD6_AVISV/1537-1693     M4PJD6.1       157 lcl|JX122402.1_prot_AFP81730.1_1[gene=SAFVgp1][protein=polyprotein][protein_id=AFP81730.1][location=838..7728] -           2379     5e-05   10.9   0.0   1   1   2.6e-05     5e-05   10.9   0.0  1847  1892   112   157    35   157 0.87 -
D9YV26_OSCV1/1631-1760     D9YV26.1       130 lcl|JX122402.1_prot_AFP81730.1_1[gene=SAFVgp1][protein=polyprotein][protein_id=AFP81730.1][location=838..7728] -           2379   5.9e-05   10.7   0.0   1   1   3.1e-05   5.9e-05   10.7   0.0  1830  1890    68   128    40   130 0.83 -
I6YQK4_PASI1/1488-1661     I6YQK4.1       174 lcl|JX122402.1_prot_AFP81730.1_1[gene=SAFVgp1][protein=polyprotein][protein_id=AFP81730.1][location=838..7728] -           2379   6.8e-05   10.5   1.8   1   1   4.4e-05   8.3e-05   10.2   1.8  1846  1892   128   174   122   174 0.90 -
POL1_CPMVS/1071-1136       P03600.1        66 lcl|JX122402.1_prot_AFP81730.1_1[gene=SAFVgp1][protein=polyprotein][protein_id=AFP81730.1][location=838..7728] -           2379   0.00031    8.3   0.1   1   1   0.00017   0.00032    8.3   0.1  1856  1890    30    64    12    65 0.90 -
POLG_EMCVR/1630-1809       Q66765.1       180 lcl|AB983595.1_prot_BAP34791.1_1[protein=polyprotein][protein_id=BAP34791.1][location=1042..7929] -           2379     2e-57  184.6   0.1   1   1   1.2e-57   2.2e-57  184.4   0.1  1712  1891     1   179     1   180 0.98 -
Q155Z9_SVV1/1512-1691      Q155Z9.1       180 lcl|AB983595.1_prot_BAP34791.1_1[protein=polyprotein][protein_id=BAP34791.1][location=1042..7929] -           2379   1.5e-33  105.4   0.1   1   1   8.7e-34   1.6e-33  105.2   0.1  1715  1891     3   179     1   180 0.90 -
I3VR62_MISV1/1599-1779     I3VR62.1       181 lcl|AB983595.1_prot_BAP34791.1_1[protein=polyprotein][protein_id=BAP34791.1][location=1042..7929] -           2379   8.6e-33  102.9   0.1   1   1     5e-33   9.4e-33  102.7   0.1  1711  1891     2   180     1   181 0.94 -
B8XTP8_COSAA/1459-1635     B8XTP8.1       177 lcl|AB983595.1_prot_BAP34791.1_1[protein=polyprotein][protein_id=BAP34791.1][location=1042..7929] -           2379   7.1e-18   53.4   0.2   1   1   4.1e-18   7.8e-18   53.2   0.2  1712  1892     1   177     1   177 0.90 -
Q9WJ28_PTV1F/1584-1760     Q9WJ28.1       177 lcl|AB983595.1_prot_BAP34791.1_1[protein=polyprotein][protein_id=BAP34791.1][location=1042..7929] -           2379   2.5e-15   45.0   0.2   1   1   1.4e-15   2.6e-15   44.9   0.2  1715  1892     4   177     1   177 0.89 -
X2L6K2_MOVA2/1878-2056     X2L6K2.1       179 lcl|AB983595.1_prot_BAP34791.1_1[protein=polyprotein][protein_id=BAP34791.1][location=1042..7929] -           2379   7.6e-14   40.0   0.0   1   1   4.4e-14   8.3e-14   39.9   0.0  1713  1892     2   179     1   179 0.86 -
H6VBU5_CADIV/729-904       H6VBU5.1       176 lcl|AB983595.1_prot_BAP34791.1_1[protein=polyprotein][protein_id=BAP34791.1][location=1042..7929] -           2379   9.5e-12   33.1   0.0   1   1   5.3e-12     1e-11   33.0   0.0  1740  1892    25   176     2   176 0.83 -
Q66776_ERBV1/1905-2095     Q66776.1       191 lcl|AB983595.1_prot_BAP34791.1_1[protein=polyprotein][protein_id=BAP34791.1][location=1042..7929] -           2379   9.6e-12   33.0   0.3   1   1   5.6e-12   1.1e-11   32.9   0.3  1738  1892    33   191    10   191 0.78 -
F4YYF3_HUNVO/1590-1773     F4YYF3.1       184 lcl|AB983595.1_prot_BAP34791.1_1[protein=polyprotein][protein_id=BAP34791.1][location=1042..7929] -           2379   1.1e-09   26.2   0.0   1   1   6.5e-10   1.2e-09   26.1   0.0  1722  1891    12   183     2   184 0.78 -
POLG_HRV8A/1522-1687       P07210.3       166 lcl|AB983595.1_prot_BAP34791.1_1[protein=polyprotein][protein_id=BAP34791.1][location=1042..7929] -           2379   3.4e-08   21.3   0.0   1   1     2e-08   3.8e-08   21.1   0.0  1783  1874    64   152    49   166 0.75 -
Q9DLK1_FMDVP/1642-1826     Q9DLK1.1       185 lcl|AB983595.1_prot_BAP34791.1_1[protein=polyprotein][protein_id=BAP34791.1][location=1042..7929] -           2379   3.3e-07   18.0   0.1   1   1   1.7e-07   3.3e-07   18.0   0.1  1787  1893    79   185     5   185 0.72 -
E9L812_MEGR1/2147-2324     E9L812.1       178 lcl|AB983595.1_prot_BAP34791.1_1[protein=polyprotein][protein_id=BAP34791.1][location=1042..7929] -           2379   4.5e-07   17.6   0.1   1   1   2.7e-07     5e-07   17.4   0.1  1723  1893     7   178     2   178 0.76 -
POLG_HPE2W/1517-1692       O73556.1       176 lcl|AB983595.1_prot_BAP34791.1_1[protein=polyprotein][protein_id=BAP34791.1][location=1042..7929] -           2379     1e-05   13.0   0.1   1   1   5.7e-06   1.1e-05   13.0   0.1  1778  1892    67   176    31   176 0.79 -
A0A023T7J3_ROSV2/1786-1963 A0A023T7J3.1   178 lcl|AB983595.1_prot_BAP34791.1_1[protein=polyprotein][protein_id=BAP34791.1][location=1042..7929] -           2379   2.3e-05   11.9   0.0   1   1   1.2e-05   2.3e-05   11.9   0.0  1750  1892    39   178    10   178 0.80 -
D9YV26_OSCV1/1631-1760     D9YV26.1       130 lcl|AB983595.1_prot_BAP34791.1_1[protein=polyprotein][protein_id=BAP34791.1][location=1042..7929] -           2379   4.2e-05   11.0   0.0   1   1   2.2e-05   4.2e-05   11.0   0.0  1830  1890    68   128    29   130 0.82 -
M4PJD6_AVISV/1537-1693     M4PJD6.1       157 lcl|AB983595.1_prot_BAP34791.1_1[protein=polyprotein][protein_id=BAP34791.1][location=1042..7929] -           2379   4.4e-05   11.0   0.0   1   1   2.3e-05   4.4e-05   11.0   0.0  1847  1892   112   157    35   157 0.86 -
I6YQK4_PASI1/1488-1661     I6YQK4.1       174 lcl|AB983595.1_prot_BAP34791.1_1[protein=polyprotein][protein_id=BAP34791.1][location=1042..7929] -           2379   6.1e-05   10.5   1.8   1   1   3.9e-05   7.5e-05   10.2   1.8  1846  1892   128   174   122   174 0.90 -
POL1_CPMVS/1071-1136       P03600.1        66 lcl|AB983595.1_prot_BAP34791.1_1[protein=polyprotein][protein_id=BAP34791.1][location=1042..7929] -           2379   0.00028    8.3   0.1   1   1   0.00015   0.00029    8.3   0.1  1856  1890    30    64    12    65 0.90 -
POLG_EMCVR/1630-1809       Q66765.1       180 lcl|AB747257.1_prot_BAM44715.1_1[protein=polyprotein][protein_id=BAM44715.1][location=1043..7933] -           2379     3e-57  184.1   0.1   1   1   1.7e-57   3.3e-57  183.9   0.1  1712  1891     1   179     1   180 0.98 -
Q155Z9_SVV1/1512-1691      Q155Z9.1       180 lcl|AB747257.1_prot_BAM44715.1_1[protein=polyprotein][protein_id=BAM44715.1][location=1043..7933] -           2379   1.7e-33  105.3   0.1   1   1   9.9e-34   1.9e-33  105.1   0.1  1715  1891     3   179     1   180 0.90 -
I3VR62_MISV1/1599-1779     I3VR62.1       181 lcl|AB747257.1_prot_BAM44715.1_1[protein=polyprotein][protein_id=BAM44715.1][location=1043..7933] -           2379   1.9e-33  105.1   0.1   1   1   1.1e-33     2e-33  105.0   0.1  1711  1891     2   180     1   181 0.94 -
B8XTP8_COSAA/1459-1635     B8XTP8.1       177 lcl|AB747257.1_prot_BAM44715.1_1[protein=polyprotein][protein_id=BAM44715.1][location=1043..7933] -           2379   2.5e-17   51.7   0.2   1   1   1.4e-17   2.7e-17   51.5   0.2  1712  1892     1   177     1   177 0.90 -
Q9WJ28_PTV1F/1584-1760     Q9WJ28.1       177 lcl|AB747257.1_prot_BAM44715.1_1[protein=polyprotein][protein_id=BAM44715.1][location=1043..7933] -           2379   2.8e-15   44.8   0.2   1   1   1.6e-15     3e-15   44.7   0.2  1715  1892     4   177     1   177 0.89 -
X2L6K2_MOVA2/1878-2056     X2L6K2.1       179 lcl|AB747257.1_prot_BAM44715.1_1[protein=polyprotein][protein_id=BAM44715.1][location=1043..7933] -           2379   5.8e-14   40.5   0.0   1   1   3.3e-14   6.3e-14   40.4   0.0  1713  1892     2   179     1   179 0.86 -
Q66776_ERBV1/1905-2095     Q66776.1       191 lcl|AB747257.1_prot_BAM44715.1_1[protein=polyprotein][protein_id=BAM44715.1][location=1043..7933] -           2379   1.1e-11   32.9   0.2   1   1   6.6e-12   1.2e-11   32.8   0.2  1738  1892    33   191    10   191 0.79 -
H6VBU5_CADIV/729-904       H6VBU5.1       176 lcl|AB747257.1_prot_BAM44715.1_1[protein=polyprotein][protein_id=BAM44715.1][location=1043..7933] -           2379   1.4e-11   32.6   0.0   1   1   7.8e-12   1.5e-11   32.5   0.0  1740  1892    25   176     2   176 0.83 -
F4YYF3_HUNVO/1590-1773     F4YYF3.1       184 lcl|AB747257.1_prot_BAM44715.1_1[protein=polyprotein][protein_id=BAM44715.1][location=1043..7933] -           2379   1.2e-09   26.2   0.0   1   1   7.1e-10   1.3e-09   26.0   0.0  1722  1891    12   183     2   184 0.78 -
POLG_HRV8A/1522-1687       P07210.3       166 lcl|AB747257.1_prot_BAM44715.1_1[protein=polyprotein][protein_id=BAM44715.1][location=1043..7933] -           2379   1.9e-08   22.2   0.0   1   1   1.1e-08   2.1e-08   22.0   0.0  1783  1874    64   152    49   166 0.75 -
Q9DLK1_FMDVP/1642-1826     Q9DLK1.1       185 lcl|AB747257.1_prot_BAM44715.1_1[protein=polyprotein][protein_id=BAM44715.1][location=1043..7933] -           2379   2.1e-07   18.8   0.1   1   1   1.1e-07   2.1e-07   18.8   0.1  1784  1893    76   185     4   185 0.73 -
E9L812_MEGR1/2147-2324     E9L812.1       178 lcl|AB747257.1_prot_BAM44715.1_1[protein=polyprotein][protein_id=BAM44715.1][location=1043..7933] -           2379   5.5e-07   17.3   0.1   1   1   3.3e-07   6.2e-07   17.2   0.1  1723  1893     7   178     2   178 0.78 -
POLG_HPE2W/1517-1692       O73556.1       176 lcl|AB747257.1_prot_BAM44715.1_1[protein=polyprotein][protein_id=BAM44715.1][location=1043..7933] -           2379   1.2e-05   12.9   0.1   1   1   6.7e-06   1.3e-05   12.9   0.1  1778  1892    67   176    31   176 0.79 -
A0A023T7J3_ROSV2/1786-1963 A0A023T7J3.1   178 lcl|AB747257.1_prot_BAM44715.1_1[protein=polyprotein][protein_id=BAM44715.1][location=1043..7933] -           2379   1.8e-05   12.3   0.0   1   1   9.9e-06   1.9e-05   12.3   0.0  1750  1892    39   178    10   178 0.81 -
M4PJD6_AVISV/1537-1693     M4PJD6.1       157 lcl|AB747257.1_prot_BAM44715.1_1[protein=polyprotein][protein_id=BAM44715.1][location=1043..7933] -           2379   4.5e-05   11.0   0.0   1   1   2.4e-05   4.5e-05   11.0   0.0  1847  1892   112   157    32   157 0.86 -
D9YV26_OSCV1/1631-1760     D9YV26.1       130 lcl|AB747257.1_prot_BAM44715.1_1[protein=polyprotein][protein_id=BAM44715.1][location=1043..7933] -           2379   5.6e-05   10.7   0.0   1   1     3e-05   5.6e-05   10.7   0.0  1830  1890    68   128    39   130 0.83 -
I6YQK4_PASI1/1488-1661     I6YQK4.1       174 lcl|AB747257.1_prot_BAM44715.1_1[protein=polyprotein][protein_id=BAM44715.1][location=1043..7933] -           2379   6.5e-05   10.5   1.8   1   1   4.2e-05     8e-05   10.2   1.8  1846  1892   128   174   122   174 0.90 -
POL1_CPMVS/1071-1136       P03600.1        66 lcl|AB747257.1_prot_BAM44715.1_1[protein=polyprotein][protein_id=BAM44715.1][location=1043..7933] -           2379   0.00029    8.3   0.1   1   1   0.00016    0.0003    8.3   0.1  1856  1890    30    64    12    65 0.90 -
POLG_EMCVR/1630-1809       Q66765.1       180 lcl|DQ401688.1_prot_ABD67451.1_1[protein=polyprotein][protein_id=ABD67451.1][location=1067..7978] -           2379   2.6e-60  194.3   0.1   1   1   1.7e-60   2.8e-60  194.2   0.1  1712  1891     1   179     1   180 0.98 -
I3VR62_MISV1/1599-1779     I3VR62.1       181 lcl|DQ401688.1_prot_ABD67451.1_1[protein=polyprotein][protein_id=ABD67451.1][location=1067..7978] -           2379   3.8e-34  107.5   0.1   1   1   2.5e-34   4.2e-34  107.4   0.1  1711  1891     2   180     1   181 0.93 -
Q155Z9_SVV1/1512-1691      Q155Z9.1       180 lcl|DQ401688.1_prot_ABD67451.1_1[protein=polyprotein][protein_id=ABD67451.1][location=1067..7978] -           2379   3.9e-33  104.2   0.1   1   1   2.5e-33   4.2e-33  104.0   0.1  1715  1891     3   179     1   180 0.89 -
Q9WJ28_PTV1F/1584-1760     Q9WJ28.1       177 lcl|DQ401688.1_prot_ABD67451.1_1[protein=polyprotein][protein_id=ABD67451.1][location=1067..7978] -           2379   1.4e-16   49.2   0.1   1   1     9e-17   1.5e-16   49.1   0.1  1721  1892    11   177     1   177 0.83 -
B8XTP8_COSAA/1459-1635     B8XTP8.1       177 lcl|DQ401688.1_prot_ABD67451.1_1[protein=polyprotein][protein_id=ABD67451.1][location=1067..7978] -           2379   4.2e-15   44.3   0.1   1   1   2.7e-15   4.7e-15   44.2   0.1  1712  1892     1   177     1   177 0.89 -
H6VBU5_CADIV/729-904       H6VBU5.1       176 lcl|DQ401688.1_prot_ABD67451.1_1[protein=polyprotein][protein_id=ABD67451.1][location=1067..7978] -           2379   5.3e-14   40.7   0.0   1   1   3.4e-14   5.8e-14   40.6   0.0  1742  1892    27   176     5   176 0.85 -
Q66776_ERBV1/1905-2095     Q66776.1       191 lcl|DQ401688.1_prot_ABD67451.1_1[protein=polyprotein][protein_id=ABD67451.1][location=1067..7978] -           2379   2.9e-11   31.6   0.2   1   1   1.9e-11   3.2e-11   31.5   0.2  1745  1892    42   191    14   191 0.82 -
X2L6K2_MOVA2/1878-2056     X2L6K2.1       179 lcl|DQ401688.1_prot_ABD67451.1_1[protein=polyprotein][protein_id=ABD67451.1][location=1067..7978] -           2379   1.3e-10   29.4   0.0   1   1     8e-11   1.4e-10   29.4   0.0  1718  1892     7   179     1   179 0.80 -
F4YYF3_HUNVO/1590-1773     F4YYF3.1       184 lcl|DQ401688.1_prot_ABD67451.1_1[protein=polyprotein][protein_id=ABD67451.1][location=1067..7978] -           2379   5.1e-10   27.5   0.0   1   1   3.3e-10   5.5e-10   27.4   0.0  1722  1891    12   183     2   184 0.71 -
Q9DLK1_FMDVP/1642-1826     Q9DLK1.1       185 lcl|DQ401688.1_prot_ABD67451.1_1[protein=polyprotein][protein_id=ABD67451.1][location=1067..7978] -           2379   6.3e-08   20.5   0.0   1   1   3.7e-08   6.3e-08   20.5   0.0  1820  1893   110   185    36   185 0.83 -
E9L812_MEGR1/2147-2324     E9L812.1       178 lcl|DQ401688.1_prot_ABD67451.1_1[protein=polyprotein][protein_id=ABD67451.1][location=1067..7978] -           2379   8.5e-08   20.1   0.1   1   1   5.7e-08   9.6e-08   19.9   0.1  1728  1893    11   178     4   178 0.82 -
A0A023T7J3_ROSV2/1786-1963 A0A023T7J3.1   178 lcl|DQ401688.1_prot_ABD67451.1_1[protein=polyprotein][protein_id=ABD67451.1][location=1067..7978] -           2379   2.8e-07   18.4   0.0   1   1   1.6e-07   2.8e-07   18.4   0.0  1761  1892    49   178     9   178 0.77 -
I6YQK4_PASI1/1488-1661     I6YQK4.1       174 lcl|DQ401688.1_prot_ABD67451.1_1[protein=polyprotein][protein_id=ABD67451.1][location=1067..7978] -           2379   1.7e-06   15.8   1.1   1   1   1.2e-06     2e-06   15.5   1.1  1846  1892   128   174   120   174 0.90 -
POLG_HRV8A/1522-1687       P07210.3       166 lcl|DQ401688.1_prot_ABD67451.1_1[protein=polyprotein][protein_id=ABD67451.1][location=1067..7978] -           2379   2.7e-06   15.1   0.0   1   1   1.8e-06   3.1e-06   14.9   0.0  1783  1891    64   165    54   166 0.72 -
M4PJD6_AVISV/1537-1693     M4PJD6.1       157 lcl|DQ401688.1_prot_ABD67451.1_1[protein=polyprotein][protein_id=ABD67451.1][location=1067..7978] -           2379   7.2e-06   13.7   0.0   1   1   4.2e-06   7.2e-06   13.7   0.0  1845  1892   110   157    27   157 0.76 -
POLG_HPE2W/1517-1692       O73556.1       176 lcl|DQ401688.1_prot_ABD67451.1_1[protein=polyprotein][protein_id=ABD67451.1][location=1067..7978] -           2379   3.3e-05   11.5   0.0   1   1   1.9e-05   3.3e-05   11.5   0.0  1781  1892    70   176    36   176 0.73 -
POL1_BBWVS/1076-1123       Q76L40.1        48 lcl|DQ401688.1_prot_ABD67451.1_1[protein=polyprotein][protein_id=ABD67451.1][location=1067..7978] -           2379   9.4e-05   10.0   0.1   1   1   5.4e-05   9.1e-05   10.1   0.1  1854  1892    10    48     2    48 0.91 -
Q0ZQM1_DHAV/1646-1782      Q0ZQM1.1       137 lcl|DQ401688.1_prot_ABD67451.1_1[protein=polyprotein][protein_id=ABD67451.1][location=1067..7978] -           2379   0.00012    9.6   0.0   1   1   5.9e-05    0.0001    9.9   0.0  1848  1892    91   137    14   137 0.79 -
D9YV26_OSCV1/1631-1760     D9YV26.1       130 lcl|DQ401688.1_prot_ABD67451.1_1[protein=polyprotein][protein_id=ABD67451.1][location=1067..7978] -           2379   0.00014    9.5   0.0   1   1   6.1e-05    0.0001    9.9   0.0  1845  1890    83   128     3   130 0.86 -
POL1_CPMVS/1071-1136       P03600.1        66 lcl|DQ401688.1_prot_ABD67451.1_1[protein=polyprotein][protein_id=ABD67451.1][location=1067..7978] -           2379   0.00015    9.4   0.0   1   1   9.5e-05   0.00016    9.2   0.0  1856  1890    30    64    17    65 0.91 -
POLG_EMCVR/1630-1809       Q66765.1       180 lcl|EU815052.1_prot_ACF19652.1_1[protein=polyprotein][protein_id=ACF19652.1][location=952..7875] -           2379   1.9e-61  197.8   0.1   1   1   1.3e-61   2.1e-61  197.7   0.1  1712  1891     1   179     1   180 0.98 -
Q155Z9_SVV1/1512-1691      Q155Z9.1       180 lcl|EU815052.1_prot_ACF19652.1_1[protein=polyprotein][protein_id=ACF19652.1][location=952..7875] -           2379   1.5e-31   98.7   0.1   1   1   9.6e-32   1.6e-31   98.6   0.1  1715  1891     3   179     1   180 0.89 -
I3VR62_MISV1/1599-1779     I3VR62.1       181 lcl|EU815052.1_prot_ACF19652.1_1[protein=polyprotein][protein_id=ACF19652.1][location=952..7875] -           2379   4.7e-31   97.0   0.0   1   1     3e-31   5.1e-31   96.9   0.0  1711  1891     2   180     1   181 0.92 -
B8XTP8_COSAA/1459-1635     B8XTP8.1       177 lcl|EU815052.1_prot_ACF19652.1_1[protein=polyprotein][protein_id=ACF19652.1][location=952..7875] -           2379   1.6e-17   52.1   0.1   1   1   1.1e-17   1.8e-17   52.0   0.1  1712  1892     1   177     1   177 0.90 -
Q9WJ28_PTV1F/1584-1760     Q9WJ28.1       177 lcl|EU815052.1_prot_ACF19652.1_1[protein=polyprotein][protein_id=ACF19652.1][location=952..7875] -           2379   1.5e-14   42.3   0.2   1   1   9.5e-15   1.6e-14   42.2   0.2  1717  1892     6   177     1   177 0.84 -
H6VBU5_CADIV/729-904       H6VBU5.1       176 lcl|EU815052.1_prot_ACF19652.1_1[protein=polyprotein][protein_id=ACF19652.1][location=952..7875] -           2379   1.2e-12   36.0   0.1   1   1   7.1e-13   1.2e-12   36.0   0.1  1741  1892    26   176     2   176 0.82 -
X2L6K2_MOVA2/1878-2056     X2L6K2.1       179 lcl|EU815052.1_prot_ACF19652.1_1[protein=polyprotein][protein_id=ACF19652.1][location=952..7875] -           2379   3.1e-12   34.6   0.0   1   1     2e-12   3.3e-12   34.5   0.0  1713  1892     2   179     1   179 0.83 -
F4YYF3_HUNVO/1590-1773     F4YYF3.1       184 lcl|EU815052.1_prot_ACF19652.1_1[protein=polyprotein][protein_id=ACF19652.1][location=952..7875] -           2379   1.5e-10   29.0   0.0   1   1   9.6e-11   1.6e-10   28.9   0.0  1735  1891    24   183     3   184 0.75 -
Q66776_ERBV1/1905-2095     Q66776.1       191 lcl|EU815052.1_prot_ACF19652.1_1[protein=polyprotein][protein_id=ACF19652.1][location=952..7875] -           2379   2.3e-10   28.4   0.3   1   1   1.5e-10   2.5e-10   28.3   0.3  1745  1892    42   191    12   191 0.81 -
Q9DLK1_FMDVP/1642-1826     Q9DLK1.1       185 lcl|EU815052.1_prot_ACF19652.1_1[protein=polyprotein][protein_id=ACF19652.1][location=952..7875] -           2379   4.9e-10   27.3   0.1   1   1   2.9e-10   4.9e-10   27.3   0.1  1785  1893    77   185     8   185 0.82 -
POLG_HRV8A/1522-1687       P07210.3       166 lcl|EU815052.1_prot_ACF19652.1_1[protein=polyprotein][protein_id=ACF19652.1][location=952..7875] -           2379   2.2e-07   18.5   0.0   1   1   1.5e-07   2.5e-07   18.3   0.0  1783  1892    64   166    50   166 0.77 -
I6YQK4_PASI1/1488-1661     I6YQK4.1       174 lcl|EU815052.1_prot_ACF19652.1_1[protein=polyprotein][protein_id=ACF19652.1][location=952..7875] -           2379   2.4e-07   18.4   1.2   1   1   1.7e-07   2.8e-07   18.2   1.2  1846  1892   128   174   119   174 0.92 -
M4PJD6_AVISV/1537-1693     M4PJD6.1       157 lcl|EU815052.1_prot_ACF19652.1_1[protein=polyprotein][protein_id=ACF19652.1][location=952..7875] -           2379   7.7e-07   16.7   0.1   1   1   4.5e-07   7.7e-07   16.7   0.1  1834  1892    99   157    10   157 0.75 -
POLG_HPE2W/1517-1692       O73556.1       176 lcl|EU815052.1_prot_ACF19652.1_1[protein=polyprotein][protein_id=ACF19652.1][location=952..7875] -           2379     3e-06   14.8   0.2   1   1   1.8e-06     3e-06   14.8   0.2  1777  1892    66   176    23   176 0.75 -
E9L812_MEGR1/2147-2324     E9L812.1       178 lcl|EU815052.1_prot_ACF19652.1_1[protein=polyprotein][protein_id=ACF19652.1][location=952..7875] -           2379   4.7e-06   14.1   0.0   1   1   3.2e-06   5.4e-06   13.9   0.0  1727  1893    10   178     3   178 0.74 -
Q0ZQM1_DHAV/1646-1782      Q0ZQM1.1       137 lcl|EU815052.1_prot_ACF19652.1_1[protein=polyprotein][protein_id=ACF19652.1][location=952..7875] -           2379   1.9e-05   12.1   0.1   1   1   1.1e-05   1.9e-05   12.1   0.1  1847  1892    92   137    35   137 0.87 -
A0A023T7J3_ROSV2/1786-1963 A0A023T7J3.1   178 lcl|EU815052.1_prot_ACF19652.1_1[protein=polyprotein][protein_id=ACF19652.1][location=952..7875] -           2379   4.2e-05   11.0   0.0   1   1   2.4e-05   4.1e-05   11.0   0.0  1771  1892    59   178     9   178 0.81 -
POL1_BBWVS/1076-1123       Q76L40.1        48 lcl|EU815052.1_prot_ACF19652.1_1[protein=polyprotein][protein_id=ACF19652.1][location=952..7875] -           2379   7.8e-05   10.1   0.1   1   1   4.5e-05   7.6e-05   10.1   0.1  1853  1892     9    48     2    48 0.91 -
D9YV26_OSCV1/1631-1760     D9YV26.1       130 lcl|EU815052.1_prot_ACF19652.1_1[protein=polyprotein][protein_id=ACF19652.1][location=952..7875] -           2379   0.00012    9.4   0.0   1   1   5.7e-05   9.7e-05    9.8   0.0  1844  1890    82   128    11   130 0.87 -
POL1_CPMVS/1071-1136       P03600.1        66 lcl|EU815052.1_prot_ACF19652.1_1[protein=polyprotein][protein_id=ACF19652.1][location=952..7875] -           2379   0.00017    9.0   0.0   1   1   0.00012    0.0002    8.7   0.0  1856  1890    30    64    19    65 0.91 -
#
# Program:         phmmer
# Version:         3.1b1 (May 2013)
# Pipeline mode:   SEARCH
# Query file:      cardio_seqs_aligned.FASTA
# Target file:     peptidase_PF00548.txt
# Option settings: phmmer --domtblout cardio_peptidase_phmmer.txt cardio_seqs_aligned.FASTA peptidase_PF00548.txt 
# Current dir:     /mnt/c/cardio_redux/unsupervised
# Date:            Wed Aug  2 10:22:20 2017
# [ok]
